{
    "#comment": "[EGYPT_LEVEL_NAME] | ELM: Ver-8.1.3 [VNL v9.0]",
    "objects": [
        {
            "objclass": "LevelDefinition",
            "objdata": {
                "Description": "[PLAYERS_TRIP_TO_EGYPT]",
                "LevelNumber": 6,
				"FirstRewardType": "unlock_plant",
				"FirstRewardParam": "gravebuster",
                "Loot": "RTID(DefaultLoot@LevelModules)",
                "Modules": [
                    "RTID(EgyptMowers@LevelModules)",
                    "RTID(StandardIntro@LevelModules)",
                    "RTID(GI@CurrentLevel)",
                    "RTID(Conveyor@CurrentLevel)",
                    "RTID(Escalation@CurrentLevel)",
                    "RTID(NewWaves@CurrentLevel)",
                    "RTID(ZombiesDeadWinCon@LevelModules)",
                    "RTID(DefaultZombieWinCondition@LevelModules)"
                ],
                "Name": "[EGYPT_LEVEL_NAME]",
                "StageModule": "RTID(EgyptStage@LevelModules)",
                "MusicType": "MiniGame_B",
				"FirstIntroNarrative": "EGYPT4_INTRO",
				"ForceToWorldMap": true
            }
        },
        {
            "aliases": [
                "Conveyor"
            ],
            "objclass": "ConveyorSeedBankProperties",
            "objdata": {
                "ManualPacketSpawning": false,
                "DropDelayConditions": [
                    {
                        "Delay": 4,
                        "MaxPackets": 0
                    },
                    {
                        "Delay": 8,
                        "MaxPackets": 2
                    },
                    {
                        "Delay": 10,
                        "MaxPackets": 4
                    },
                    {
                        "Delay": 12,
                        "MaxPackets": 8
                    }
                ],
                "SpeedConditions": [
                    {
                        "Speed": 80,
                        "MaxPackets": 0
                    }
                ],
                "InitialPlantList": [
                    {
                        "PlantType": "peashooter",
                        "Weight": 7
                    },
                    {
                        "PlantType": "cabbagepult",
                        "Weight": 7
                    },
                    {
                        "PlantType": "bloomerang",
                        "Weight": 4
                    },
                    {
                        "PlantType": "wallnut",
                        "Weight": 3
                    },
                    {
                        "PlantType": "potatomine",
                        "Weight": 2,
                        "MaxCount": 2,
                        "MaxWeightFactor": 0
                    }
                ]
            }
        },
        {
            "aliases": [
                "GI"
            ],
            "objclass": "InitialGridItemProperties",
            "objdata": {
                "InitialGridItemPlacements": [
                    {
                        "GridX": 5,
                        "GridY": 0,
                        "TypeName": "gravestone_egypt"
                    },
                    {
                        "GridX": 6,
                        "GridY": 1,
                        "TypeName": "gravestone_egypt"
                    },
                    {
                        "GridX": 7,
                        "GridY": 2,
                        "TypeName": "gravestone_egypt"
                    },
                    {
                        "GridX": 7,
                        "GridY": 3,
                        "TypeName": "gravestone_egypt"
                    },
                    {
                        "GridX": 8,
                        "GridY": 3,
                        "TypeName": "gravestone_egypt"
                    },
                    {
                        "GridX": 6,
                        "GridY": 4,
                        "TypeName": "gravestone_egypt"
                    },
                    {
                        "GridX": 8,
                        "GridY": 4,
                        "TypeName": "gravestone_egypt"
                    }
                ]
            }
        },
        {
            "aliases": [
                "Escalation"
            ],
            "objclass": "LevelEscalationModuleProperties",
            "objdata": {
                "FlagCount": 2,
                "WavesPerFlag": 6,
                "PlantfoodToSpawnCount": 0,
                "StartingPoints": 0,
                "PointIncrementPerWave": 10,
                "WaveManagerProps": "RTID(WaveManager@CurrentLevel)",
                "ZombiePool": [
                    "RTID(mummy@ZombieTypes)",
                    "RTID(mummy_armor1@ZombieTypes)",
                    "RTID(mummy_armor2@ZombieTypes)"
                ]
            }
        },
        {
            "aliases": [
                "NewWaves"
            ],
            "objclass": "WaveManagerModuleProperties",
            "objdata": {}
        },
        {
            "aliases": [
                "WaveManager"
            ],
            "objclass": "WaveManagerProperties",
            "objdata": {
                "FlagWaveInterval": 6,
                "WaveCount": 12,
                "SuppressFlagZombie": false,
                "MinNextWaveHealthPercentage": 0.25,
                "MaxNextWaveHealthPercentage": 0.45,
                "Waves": [
                    [
                        "RTID(Wave1@.)"
                    ],
                    [
                        "RTID(Wave2@.)"
                    ],
                    [
                        "RTID(Wave3@.)"
                    ],
                    [
                        "RTID(Wave4@.)"
                    ],
                    [
                        "RTID(Wave5@.)",
                        "RTID(Sandstorm5@.)"
                    ],
                    [
                        "RTID(Wave6@.)"
                    ],
                    [
                        "RTID(Wave7@.)"
                    ],
                    [
                        "RTID(Wave8@.)"
                    ],
                    [
                        "RTID(Wave9@.)",
                        "RTID(Sandstorm9@.)"
                    ],
                    [
                        "RTID(Wave10@.)"
                    ],
                    [
                        "RTID(Wave11@.)"
                    ],
                    [
                        "RTID(Wave12@.)",
                        "RTID(Sandstorm12@.)"
                    ]
                ]
            }
        },
        {
            "aliases": [
                "Wave1"
            ],
            "objclass": "SpawnZombiesJitteredWaveActionProps",
            "objdata": {
                "AdditionalPlantfood": 0,
                "Zombies": [
                    {
                        "Type": "RTID(mummy@ZombieTypes)"
                    },
                    {
                        "Type": "RTID(mummy@ZombieTypes)"
                    }
                ]
            }
        },
        {
            "aliases": [
                "Wave2"
            ],
            "objclass": "SpawnZombiesJitteredWaveActionProps",
            "objdata": {
                "AdditionalPlantfood": 0,
                "Zombies": [
                    {
                        "Type": "RTID(mummy@ZombieTypes)"
                    },
                    {
                        "Type": "RTID(mummy_armor1@ZombieTypes)"
                    },
                    {
                        "Type": "RTID(mummy@ZombieTypes)"
                    }
                ]
            }
        },
        {
            "aliases": [
                "Wave3"
            ],
            "objclass": "SpawnZombiesJitteredWaveActionProps",
            "objdata": {
                "AdditionalPlantfood": 1,
                "Zombies": [
                    {
                        "Type": "RTID(mummy@ZombieTypes)"
                    },
                    {
                        "Type": "RTID(camel_onehump@ZombieTypes)"
                    },
                    {
                        "Type": "RTID(mummy_armor1@ZombieTypes)"
                    },
                    {
                        "Type": "RTID(mummy@ZombieTypes)"
                    }
                ]
            }
        },
        {
            "aliases": [
                "Wave4"
            ],
            "objclass": "SpawnZombiesJitteredWaveActionProps",
            "objdata": {
                "AdditionalPlantfood": 0,
                "Zombies": [
                    {
                        "Type": "RTID(mummy@ZombieTypes)"
                    },
                    {
                        "Type": "RTID(mummy_armor1@ZombieTypes)"
                    },
                    {
                        "Type": "RTID(mummy@ZombieTypes)"
                    },
                    {
                        "Type": "RTID(mummy_armor1@ZombieTypes)"
                    },
                    {
                        "Type": "RTID(mummy@ZombieTypes)"
                    },
                    {
                        "Type": "RTID(mummy@ZombieTypes)"
                    }
                ]
            }
        },
        {
            "aliases": [
                "Wave5"
            ],
            "objclass": "SpawnZombiesJitteredWaveActionProps",
            "objdata": {
                "AdditionalPlantfood": 0,
                "Zombies": [
                    {
                        "Type": "RTID(camel_onehump@ZombieTypes)"
                    },
                    {
                        "Type": "RTID(mummy_armor2@ZombieTypes)"
                    },
                    {
                        "Type": "RTID(mummy_armor1@ZombieTypes)"
                    }
                ]
            }
        },
        {
            "aliases": [
                "Wave6"
            ],
            "objclass": "SpawnZombiesJitteredWaveActionProps",
            "objdata": {
                "AdditionalPlantfood": 1,
                "Zombies": [
                    {
                        "Type": "RTID(mummy@ZombieTypes)"
                    },
                    {
                        "Type": "RTID(mummy_armor1@ZombieTypes)"
                    },
                    {
                        "Type": "RTID(camel_twohump@ZombieTypes)"
                    },
                    {
                        "Type": "RTID(mummy@ZombieTypes)"
                    },
                    {
                        "Type": "RTID(mummy_armor2@ZombieTypes)"
                    },
                    {
                        "Type": "RTID(mummy@ZombieTypes)"
                    }
                ]
            }
        },
        {
            "aliases": [
                "Wave7"
            ],
            "objclass": "SpawnZombiesJitteredWaveActionProps",
            "objdata": {
                "AdditionalPlantfood": 0,
                "Zombies": [
                    {
                        "Row": "2",
                        "Type": "RTID(camel_onehump@ZombieTypes)"
                    },
                    {
                        "Row": "3",
                        "Type": "RTID(camel_onehump@ZombieTypes)"
                    },
                    {
                        "Row": "4",
                        "Type": "RTID(camel_onehump@ZombieTypes)"
                    },
                    {
                        "Type": "RTID(mummy@ZombieTypes)"
                    },
                    {
                        "Type": "RTID(mummy@ZombieTypes)"
                    },
                    {
                        "Type": "RTID(mummy@ZombieTypes)"
                    }
                ]
            }
        },
        {
            "aliases": [
                "Wave8"
            ],
            "objclass": "SpawnZombiesJitteredWaveActionProps",
            "objdata": {
                "AdditionalPlantfood": 0,
                "Zombies": [
                    {
                        "Type": "RTID(mummy_armor2@ZombieTypes)"
                    },
                    {
                        "Type": "RTID(mummy_armor1@ZombieTypes)"
                    },
                    {
                        "Type": "RTID(camel_onehump@ZombieTypes)"
                    },
                    {
                        "Type": "RTID(mummy_armor2@ZombieTypes)"
                    },
                    {
                        "Type": "RTID(mummy@ZombieTypes)"
                    },
                    {
                        "Type": "RTID(mummy@ZombieTypes)"
                    },
                    {
                        "Type": "RTID(mummy@ZombieTypes)"
                    }
                ]
            }
        },
        {
            "aliases": [
                "Wave9"
            ],
            "objclass": "SpawnZombiesJitteredWaveActionProps",
            "objdata": {
                "AdditionalPlantfood": 0,
                "Zombies": [
                    {
                        "Row": "2",
                        "Type": "RTID(camel_onehump@ZombieTypes)"
                    },
                    {
                        "Row": "5",
                        "Type": "RTID(camel_onehump@ZombieTypes)"
                    },
                    {
                        "Type": "RTID(mummy_armor2@ZombieTypes)"
                    },
                    {
                        "Type": "RTID(mummy@ZombieTypes)"
                    }
                ]
            }
        },
        {
            "aliases": [
                "Wave10"
            ],
            "objclass": "SpawnZombiesJitteredWaveActionProps",
            "objdata": {
                "AdditionalPlantfood": 2,
                "Zombies": [
                    {
                        "Type": "RTID(mummy_armor2@ZombieTypes)"
                    },
                    {
                        "Type": "RTID(camel_onehump@ZombieTypes)"
                    },
                    {
                        "Type": "RTID(mummy_armor1@ZombieTypes)"
                    },
                    {
                        "Type": "RTID(mummy@ZombieTypes)"
                    },
                    {
                        "Type": "RTID(mummy_armor1@ZombieTypes)"
                    },
                    {
                        "Type": "RTID(mummy_armor1@ZombieTypes)"
                    },
                    {
                        "Type": "RTID(mummy_armor2@ZombieTypes)"
                    }
                ]
            }
        },
        {
            "aliases": [
                "Wave11"
            ],
            "objclass": "SpawnZombiesJitteredWaveActionProps",
            "objdata": {
                "AdditionalPlantfood": 0,
                "Zombies": [
                    {
                        "Row": "1",
                        "Type": "RTID(camel_twohump@ZombieTypes)"
                    },
                    {
                        "Row": "3",
                        "Type": "RTID(camel_onehump@ZombieTypes)"
                    },
                    {
                        "Row": "5",
                        "Type": "RTID(camel_onehump@ZombieTypes)"
                    },
                    {
                        "Type": "RTID(mummy@ZombieTypes)"
                    },
                    {
                        "Type": "RTID(mummy_armor2@ZombieTypes)"
                    },
                    {
                        "Type": "RTID(mummy_armor1@ZombieTypes)"
                    },
                    {
                        "Type": "RTID(mummy@ZombieTypes)"
                    },
                    {
                        "Type": "RTID(mummy@ZombieTypes)"
                    }
                ]
            }
        },
        {
            "aliases": [
                "Wave12"
            ],
            "objclass": "SpawnZombiesJitteredWaveActionProps",
            "objdata": {
                "AdditionalPlantfood": 0,
                "Zombies": [
                    {
                        "Row": "3",
                        "Type": "RTID(camel_onehump@ZombieTypes)"
                    },
                    {
                        "Row": "5",
                        "Type": "RTID(camel_onehump@ZombieTypes)"
                    },
                    {
                        "Type": "RTID(mummy_armor1@ZombieTypes)"
                    },
                    {
                        "Type": "RTID(mummy_armor2@ZombieTypes)"
                    },
                    {
                        "Type": "RTID(mummy_armor1@ZombieTypes)"
                    }
                ]
            }
        },
        {
            "aliases": [
                "Sandstorm5"
            ],
            "#EventInfo": "APT-3 APF-0 MLS-1 MFW-1 ",
            "objclass": "StormZombieSpawnerProps",
            "objdata": {
                "AdditionalPlantfood": "0",
                "Type": "sandstorm",
                "ColumnStart": 6,
                "ColumnEnd": 7,
                "TimeBetweenGroups": 1.5,
                "GroupSize": 1,
                "Zombies": [
                    {
                        "Type": "RTID(mummy@ZombieTypes)"
                    },
                    {
                        "Type": "RTID(mummy@ZombieTypes)"
                    },
                    {
                        "Type": "RTID(mummy@ZombieTypes)"
                    }
                ]
            }
        },
        {
            "aliases": [
                "Sandstorm9"
            ],
            "#EventInfo": "APT-5 APF-0 MLS-1 MFW-1 ",
            "objclass": "StormZombieSpawnerProps",
            "objdata": {
                "AdditionalPlantfood": "0",
                "Type": "sandstorm",
                "ColumnStart": 5,
                "ColumnEnd": 7,
                "TimeBetweenGroups": 1.5,
                "GroupSize": 2,
                "Zombies": [
                    {
                        "Type": "RTID(mummy@ZombieTypes)"
                    },
                    {
                        "Type": "RTID(mummy@ZombieTypes)"
                    },
                    {
                        "Type": "RTID(mummy_armor1@ZombieTypes)"
                    },
                    {
                        "Type": "RTID(mummy@ZombieTypes)"
                    }
                ]
            }
        },
        {
            "aliases": [
                "Sandstorm12"
            ],
            "#EventInfo": "APT-10 APF-0 MLS-1 MFW-1 ",
            "objclass": "StormZombieSpawnerProps",
            "objdata": {
                "AdditionalPlantfood": "0",
                "Type": "sandstorm",
                "ColumnStart": 5,
                "ColumnEnd": 6,
                "TimeBetweenGroups": 2,
                "GroupSize": 2,
                "Zombies": [
                    {
                        "Type": "RTID(mummy@ZombieTypes)"
                    },
                    {
                        "Type": "RTID(mummy@ZombieTypes)"
                    },
                    {
                        "Type": "RTID(mummy@ZombieTypes)"
                    },
                    {
                        "Type": "RTID(mummy_armor1@ZombieTypes)"
                    },
                    {
                        "Type": "RTID(mummy@ZombieTypes)"
                    },
                    {
                        "Type": "RTID(mummy_armor2@ZombieTypes)"
                    }
                ]
            }
        },
        {}
    ],
    "version": 1
}